Overstorey – Example analysis
…
Run patch for two species. Here, we have provided two values of lma, being thin leaves (0.07) or thick leaves (0.24). You could run this patch for just one species by defining just one lma value, or none if you just want to use the default trait values.

results <-
  run_mypatch(traits=trait_matrix(c(0.07, 0.24), c("lma")))

run_scm(..., collect = TRUE) in run_mypatch already returns the results in a tidy format (collecting and tidying the patch state at every step), so we can use the output directly.

results_tidy <- results

results_tidy

$steps
# A tibble: 102 × 3
    step      time patch_density
   <int>     <dbl>         <dbl>
 1     1 0                 0.140
 2     2 0.00001           0.140
 3     3 0.00002           0.140
 4     4 0.00003           0.140
 5     5 0.00004           0.140
 6     6 0.00005           0.140
 7     7 0.00006           0.140
 8     8 0.00007           0.140
 9     9 0.00008           0.140
10    10 0.0000953         0.140
# ℹ 92 more rows

$n_spp
[1] 2

$species
# A tibble: 10,506 × 24
   species   time  step patch_density  node density log_density height mortality fecundity area_heartwood mass_heartwood offspring_produced_s…¹ competition_effect height_inverse net_mass_production_dt
   <chr>    <dbl> <int>         <dbl> <int>   <dbl>       <dbl>  <dbl>     <dbl>     <dbl>          <dbl>          <dbl>                  <dbl>              <dbl>          <dbl>                  <dbl>
 1 1         0        1         0.140     1    24.5        3.20 0.0351  0.000840  0              0              0                      0                  0.000261           28.5               0.000901
 2 1         1e-5     2         0.140     1    24.5        3.20 0.0351  0.000841  1.29e-26       1.12e-13       2.44e-12               1.28e-26           0.000261           28.5               0.000901
 3 1         1e-5     2         0.140     2    24.5        3.20 0.0351  0.000840  0              0              0                      0                  0.000261           28.5               0.000901
 4 1         2e-5     3         0.140     1    24.5        3.20 0.0351  0.000841  2.57e-26       2.24e-13       4.87e-12               2.57e-26           0.000261           28.5               0.000902
 5 1         2e-5     3         0.140     2    24.5        3.20 0.0351  0.000840  1.29e-26       1.12e-13       2.44e-12               1.28e-26           0.000261           28.5               0.000901
 6 1         2e-5     3         0.140     3    24.5        3.20 0.0351  0.000840  0              0              0                      0                  0.000261           28.5               0.000901
 7 1         3e-5     4         0.140     1    24.5        3.20 0.0351  0.000841  3.86e-26       3.36e-13       7.31e-12               3.85e-26           0.000261           28.5               0.000902
 8 1         3e-5     4         0.140     2    24.5        3.20 0.0351  0.000840  2.57e-26       2.24e-13       4.87e-12               2.57e-26           0.000261           28.5               0.000902
 9 1         3e-5     4         0.140     3    24.5        3.20 0.0351  0.000840  1.29e-26       1.12e-13       2.44e-12               1.28e-26           0.000261           28.5               0.000902
10 1         3e-5     4         0.140     4    24.5        3.20 0.0351  0.000840  0              0              0                      0                  0.000261           28.5               0.000901
# ℹ 10,496 more rows
# ℹ abbreviated name: ¹​offspring_produced_survival_weighted
# ℹ 8 more variables: root_mass <dbl>, opt_psi_stem <dbl>, opt_root_psi <dbl>, transpiration <dbl>, E_up_ <dbl>, profit <dbl>, stom_cond_CO2 <dbl>, assimilation <dbl>

$env
$env$light_availability
# A tibble: 6,718 × 5
    time  step patch_density  height light_availability
   <dbl> <int>         <dbl>   <dbl>              <dbl>
 1     0     1         0.140 0                        1
 2     0     1         0.140 0.00110                  1
 3     0     1         0.140 0.00219                  1
 4     0     1         0.140 0.00329                  1
 5     0     1         0.140 0.00438                  1
 6     0     1         0.140 0.00548                  1
 7     0     1         0.140 0.00658                  1
 8     0     1         0.140 0.00767                  1
 9     0     1         0.140 0.00877                  1
10     0     1         0.140 0.00986                  1
# ℹ 6,708 more rows

$env$soil_moist
# A tibble: 1,530 × 4
    time  step patch_density soil_moist
   <dbl> <int>         <dbl>      <dbl>
 1     0     1         0.140        0.2
 2     0     1         0.140        0.2
 3     0     1         0.140        0.2
 4     0     1         0.140        0.2
 5     0     1         0.140        0.2
 6     0     1         0.140        0.2
 7     0     1         0.140        0.2
 8     0     1         0.140        0.2
 9     0     1         0.140        0.2
10     0     1         0.140        0.2
# ℹ 1,520 more rows

$env$soil_depth
# A tibble: 1,530 × 4
    time  step patch_density soil_depth
   <dbl> <int>         <dbl>      <dbl>
 1     0     1         0.140        0.1
 2     0     1         0.140        0.2
 3     0     1         0.140        0.3
 4     0     1         0.140        0.4
 5     0     1         0.140        0.5
 6     0     1         0.140        0.6
 7     0     1         0.140        0.7
 8     0     1         0.140        0.8
 9     0     1         0.140        0.9
10     0     1         0.140        1  
# ℹ 1,520 more rows

$env$soil_moist_cumulative_flux
# A tibble: 102 × 7
        time  step patch_density sum_rainfall sum_infiltration  sum_drainage sum_resource_depletion
       <dbl> <int>         <dbl>        <dbl>            <dbl>         <dbl>                  <dbl>
 1 0             1         0.140    0               0          0                           0       
 2 0.00001       2         0.140    0.0000100       0.00000998 0.00000000758               0       
 3 0.00002       3         0.140    0.0000200       0.0000200  0.0000000152                3.97e-13
 4 0.00003       4         0.140    0.0000300       0.0000299  0.0000000227                1.23e-12
 5 0.00004       5         0.140    0.0000400       0.0000399  0.0000000303                2.51e-12
 6 0.00005       6         0.140    0.0000500       0.0000499  0.0000000379                4.23e-12
 7 0.00006       7         0.140    0.0000600       0.0000599  0.0000000455                6.39e-12
 8 0.00007       8         0.140    0.0000700       0.0000698  0.0000000530                8.98e-12
 9 0.00008       9         0.140    0.0000800       0.0000798  0.0000000606                1.20e-11
10 0.0000953    10         0.140    0.0000953       0.0000950  0.0000000722                1.73e-11
# ℹ 92 more rows
…
Calculate totals by species for each step

For each species, we can integrate over the height distribution to get the total value of the state variable per \(m^2\)

data_species_tot <-
  results_tidy$species %>% integrate_over_size_distribution()

data_species_tot

# A tibble: 202 × 24
    step    time patch_density species   density min_height log_density     height    mortality fecundity area_heartwood mass_heartwood offspring_produced_survival_…¹ competition_effect height_inverse
   <int>   <dbl>         <dbl> <chr>       <dbl>      <dbl>       <dbl>      <dbl>        <dbl>     <dbl>          <dbl>          <dbl>                          <dbl>              <dbl>          <dbl>
 1     2 0.00001         0.140 1       0.0000999     0.0351    0.000320 0.00000350 0.0000000840  6.42e-31       5.59e-18       1.22e-16                       6.42e-31       0.0000000261        0.00285
 2     2 0.00001         0.140 2       0.0000999     0.0239    0.000430 0.00000239 0.0000000787  2.96e-31       2.59e-18       3.84e-17                       2.96e-31       0.0000000121        0.00418
 3     3 0.00002         0.140 1       0.000200      0.0351    0.000639 0.00000701 0.000000168   2.57e-30       2.24e-17       4.87e-16                       2.57e-30       0.0000000522        0.00570
 4     3 0.00002         0.140 2       0.000200      0.0239    0.000860 0.00000477 0.000000157   1.19e-30       1.04e-17       1.54e-16                       1.18e-30       0.0000000242        0.00837
 5     4 0.00003         0.140 1       0.000300      0.0351    0.000958 0.0000105  0.000000252   5.78e-30       5.03e-17       1.10e-15                       5.78e-30       0.0000000783        0.00854
 6     4 0.00003         0.140 2       0.000300      0.0239    0.00129  0.00000716 0.000000236   2.67e-30       2.33e-17       3.46e-16                       2.66e-30       0.0000000363        0.0126 
 7     5 0.00004         0.140 1       0.000400      0.0351    0.00128  0.0000140  0.000000336   1.03e-29       8.95e-17       1.95e-15                       1.03e-29       0.000000104         0.0114 
 8     5 0.00004         0.140 2       0.000400      0.0239    0.00172  0.00000955 0.000000315   4.74e-30       4.15e-17       6.15e-16                       4.74e-30       0.0000000484        0.0167 
 9     6 0.00005         0.140 1       0.000500      0.0351    0.00160  0.0000175  0.000000420   1.61e-29       1.40e-16       3.04e-15                       1.60e-29       0.000000131         0.0142 
10     6 0.00005         0.140 2       0.000500      0.0239    0.00215  0.0000119  0.000000394   7.41e-30       6.48e-17       9.60e-16                       7.40e-30       0.0000000605        0.0209 
# ℹ 192 more rows
# ℹ abbreviated name: ¹​offspring_produced_survival_weighted
# ℹ 9 more variables: net_mass_production_dt <dbl>, root_mass <dbl>, opt_psi_stem <dbl>, opt_root_psi <dbl>, transpiration <dbl>, E_up_ <dbl>, profit <dbl>, stom_cond_CO2 <dbl>, assimilation <dbl>
…
We can use the function TF24_expand_state to capture a large number of additional state variables (e.g.leaf area)

results_tidy_expand <- results_tidy %>% expand_state()

results_tidy_expand$species

# A tibble: 10,506 × 36
   species   time  step patch_density  node density log_density height mortality fecundity area_heartwood mass_heartwood offspring_produced_s…¹ competition_effect height_inverse net_mass_production_dt
   <chr>    <dbl> <int>         <dbl> <int>   <dbl>       <dbl>  <dbl>     <dbl>     <dbl>          <dbl>          <dbl>                  <dbl>              <dbl>          <dbl>                  <dbl>
 1 1         0        1         0.140     1    24.5        3.20 0.0351  0.000840  0              0              0                      0                  0.000261           28.5               0.000901
 2 1         1e-5     2         0.140     1    24.5        3.20 0.0351  0.000841  1.29e-26       1.12e-13       2.44e-12               1.28e-26           0.000261           28.5               0.000901
 3 1         1e-5     2         0.140     2    24.5        3.20 0.0351  0.000840  0              0              0                      0                  0.000261           28.5               0.000901
 4 1         2e-5     3         0.140     1    24.5        3.20 0.0351  0.000841  2.57e-26       2.24e-13       4.87e-12               2.57e-26           0.000261           28.5               0.000902
 5 1         2e-5     3         0.140     2    24.5        3.20 0.0351  0.000840  1.29e-26       1.12e-13       2.44e-12               1.28e-26           0.000261           28.5               0.000901
 6 1         2e-5     3         0.140     3    24.5        3.20 0.0351  0.000840  0              0              0                      0                  0.000261           28.5               0.000901
 7 1         3e-5     4         0.140     1    24.5        3.20 0.0351  0.000841  3.86e-26       3.36e-13       7.31e-12               3.85e-26           0.000261           28.5               0.000902
 8 1         3e-5     4         0.140     2    24.5        3.20 0.0351  0.000840  2.57e-26       2.24e-13       4.87e-12               2.57e-26           0.000261           28.5               0.000902
 9 1         3e-5     4         0.140     3    24.5        3.20 0.0351  0.000840  1.29e-26       1.12e-13       2.44e-12               1.28e-26           0.000261           28.5               0.000902
10 1         3e-5     4         0.140     4    24.5        3.20 0.0351  0.000840  0              0              0                      0                  0.000261           28.5               0.000901
# ℹ 10,496 more rows
# ℹ abbreviated name: ¹​offspring_produced_survival_weighted
# ℹ 20 more variables: root_mass <dbl>, opt_psi_stem <dbl>, opt_root_psi <dbl>, transpiration <dbl>, E_up_ <dbl>, profit <dbl>, stom_cond_CO2 <dbl>, assimilation <dbl>, area_leaf <dbl>,
#   mass_leaf <dbl>, area_sapwood <dbl>, mass_sapwood <dbl>, area_bark <dbl>, mass_bark <dbl>, area_stem <dbl>, diameter_stem <dbl>, mass_root <dbl>, mass_live <dbl>, mass_total <dbl>,
#   mass_above_ground <dbl>
…
results_tidy <- results

Lets interpolate our results from the run_mypatch above for timepoints 1,5,10 using the function interpolate_to_times. Note that time in units of years.

times <- c(1, 5, 10)

tidy_species_data <- results_tidy$species

tidy_species_new <- interpolate_to_times(tidy_species_data, times)

Gives interpolated values for state variables at new time points.

tidy_species_new %>% drop_na()

# A tibble: 507 × 23
   species  node  time patch_density  density   log_density height     mortality fecundity area_heartwood mass_heartwood offspring_produced_s…¹ competition_effect height_inverse net_mass_production_dt
   <chr>   <int> <dbl>         <dbl>    <dbl>         <dbl>  <dbl>         <dbl>     <dbl>          <dbl>          <dbl>                  <dbl>              <dbl>          <dbl>                  <dbl>
 1 1           1     1        0.138   1.74e+0         0.553   2.99        0.0103  1.27e-14      0.0000301         0.0460               7.05e-15               1.90         0.334                    1.82
 2 1           1     5        0.0953  1.61e-6   -396184.      7.54   396184.      2.67e- 7      0.00105           3.95                 4.32e- 8              12.1          0.133                   -2.44
 3 1           1    10        0.0298 -2.97e-9 -14577869.     10.2  14577870.      1.96e- 3      0.00277          13.4                  4.32e- 8              22.0          0.0983                  -1.49
 4 1           2     1        0.138   1.74e+0         0.553   2.99        0.0103  1.27e-14      0.0000301         0.0460               7.05e-15               1.90         0.334                    1.82
 5 1           2     5        0.0953  1.60e-6   -395951.      7.54   395951.      2.66e- 7      0.00105           3.95                 4.32e- 8              12.1          0.133                   -2.44
 6 1           2    10        0.0298 -2.95e-9 -14576643.     10.2  14576644.      1.96e- 3      0.00277          13.4                  4.32e- 8              22.0          0.0983                  -1.49
 7 1           3     1        0.138   1.74e+0         0.553   2.99        0.0103  1.27e-14      0.0000301         0.0460               7.05e-15               1.90         0.334                    1.82
 8 1           3     5        0.0953  1.62e-6   -395718.      7.54   395718.      2.66e- 7      0.00105           3.95                 4.32e- 8              12.1          0.133                   -2.44
 9 1           3    10        0.0298 -2.99e-9 -14575416.     10.2  14575417.      1.96e- 3      0.00277          13.4                  4.32e- 8              22.0          0.0983                  -1.49
10 1           4     1        0.138   1.74e+0         0.553   2.99        0.0103  1.27e-14      0.0000301         0.0460               7.04e-15               1.90         0.334                    1.82
# ℹ 497 more rows
# ℹ abbreviated name: ¹​offspring_produced_survival_weighted
# ℹ 8 more variables: root_mass <dbl>, opt_psi_stem <dbl>, opt_root_psi <dbl>, transpiration <dbl>, E_up_ <dbl>, profit <dbl>, stom_cond_CO2 <dbl>, assimilation <dbl>
…
Interpolate to specific heights

Similar to above, we can interpolate across nodes at given time to sepcific heights, using the function interpolate_to_heights

heights <- c(1, 5, 10)

tidy_species_data <- results_tidy$species

tidy_species_new <- interpolate_to_heights(tidy_species_data, heights)

Gives predictions at new height.

tidy_species_new %>% drop_na()

# A tibble: 46 × 23
   species  time  step patch_density density log_density height mortality fecundity area_heartwood mass_heartwood offspring_produced_survival…¹ competition_effect height_inverse net_mass_production_dt
   <chr>   <dbl> <int>         <dbl>   <dbl>       <dbl>  <dbl>     <dbl>     <dbl>          <dbl>          <dbl>                         <dbl>              <dbl>          <dbl>                  <dbl>
 1 1       0.438    71         0.140    2.17       0.776      1   0.00478  1.06e-18    0.000000798       0.000354                      1.05e-18              0.212          1.00                 0.695  
 2 1       0.500    72         0.140    2.16       0.769      1   0.00482  1.06e-18    0.000000817       0.000364                      1.05e-18              0.212          1.000                0.667  
 3 1       0.563    73         0.140    2.14       0.760      1   0.00490  1.06e-18    0.000000853       0.000382                      1.05e-18              0.212          1.000                0.619  
 4 1       0.625    74         0.140    2.12       0.750      1   0.00503  1.06e-18    0.000000916       0.000414                      1.05e-18              0.212          1.00                 0.544  
 5 1       0.750    75         0.139    2.05       0.717      1   0.00569  1.06e-18    0.00000137        0.000673                      1.05e-18              0.212          0.999                0.0982 
 6 2       2.25     83         0.130    2.02       0.703      1   0.354    1.60e-18    0.00000799        0.00365                       1.13e-18              0.212          1.00                 0.158  
 7 2       2.50     84         0.127    1.86       0.619      1   0.384    1.60e-18    0.00000869        0.00400                       1.08e-18              0.212          1.000                0.0610 
 8 2       3.00     85         0.122    1.83       0.607      1   0.429    1.60e-18    0.00000898        0.00397                       9.71e-19              0.212          1.000                0.133  
 9 2       3.50     86         0.116    1.61       0.479      1   0.566    1.60e-18    0.00000897        0.00396                       9.65e-19              0.212          1.000                0.00931
10 2       4.00     87         0.110    1.32       0.276      1   0.847    1.60e-18    0.00000855        0.00358                       6.99e-19              0.212          1.000                0.167  
# ℹ 36 more rows
# ℹ abbreviated name: ¹​offspring_produced_survival_weighted
# ℹ 8 more variables: root_mass <dbl>, opt_psi_stem <dbl>, opt_root_psi <dbl>, transpiration <dbl>, E_up_ <dbl>, profit <dbl>, stom_cond_CO2 <dbl>, assimilation <dbl>
…
